/Users/feedingthemachine/NetBeansProjects/eefinal/src/main/java/com/feedingthemachine/eefinal/dto/Metadata.java
/Users/feedingthemachine/NetBeansProjects/eefinal/src/main/java/com/feedingthemachine/eefinal/resources/JavaEE8Resource.java
/Users/feedingthemachine/NetBeansProjects/eefinal/src/main/java/com/feedingthemachine/eefinal/entity/Words.java
/Users/feedingthemachine/NetBeansProjects/eefinal/src/main/java/com/feedingthemachine/dao/WordsJpaController.java
/Users/feedingthemachine/NetBeansProjects/eefinal/src/main/java/com/feedingthemachine/dao/exceptions/IllegalOrphanException.java
/Users/feedingthemachine/NetBeansProjects/eefinal/src/main/java/com/feedingthemachine/eefinal/dto/RootDto.java
/Users/feedingthemachine/NetBeansProjects/eefinal/src/main/java/com/feedingthemachine/dao/exceptions/PreexistingEntityException.java
/Users/feedingthemachine/NetBeansProjects/eefinal/src/main/java/com/feedingthemachine/eefinal/controller/WordController.java
/Users/feedingthemachine/NetBeansProjects/eefinal/src/main/java/com/feedingthemachine/eefinal/AppConfig.java
/Users/feedingthemachine/NetBeansProjects/eefinal/src/main/java/com/feedingthemachine/dao/exceptions/NonexistentEntityException.java
/Users/feedingthemachine/NetBeansProjects/eefinal/src/main/java/com/feedingthemachine/AppDiccionario.java
